Capítulo 3 Exploración y visualización estática de datos | Visualización de datos en R
…
3.2 Visualización de variable continua con un histograma

La distribución de una variable continua se puede medir con el uso de un histograma. En este ejercicio crearás un histograma de los acres quemados en incendios forestales.

Siguiendo los datos de incendios forestales del 2010 al 2016:

Introduzca el marco de datos y utilice la función select() para limitar las columnas y filtrar las filas para que sólo se incluyan los incendios superiores a 1.000 acres. Dado que tenemos un gran número de incendios forestales que quemaron sólo un pequeño número de acres, nos centraremos en los incendios que son un poco más grandes en este caso.

Code

df %>%
  select(ORGANIZATI, STATE, YEAR_, TOTALACRES, CAUSE) %>%
  filter(TOTALACRES >= 1000)

## # A tibble: 1,377 × 5
##    ORGANIZATI STATE      YEAR_ TOTALACRES CAUSE       
##    <chr>      <chr>      <dbl>      <dbl> <chr>       
##  1 FWS        Washington  2010       2755 Natural     
##  2 FWS        Idaho       2010       1801 Undetermined
##  3 FWS        Montana     2010      27898 Natural     
##  4 FWS        Montana     2012       9468 Natural     
##  5 FWS        Washington  2012       1141 Human       
##  6 FWS        Oregon      2010       3083 Human       
##  7 FWS        Oregon      2013      51015 Undetermined
##  8 FWS        Washington  2016     171915 Human       
##  9 FWS        Arizona     2015       6000 Natural     
## 10 FWS        Arizona     2016       1624 Natural     
## # ℹ 1,367 more rows
…
